<svg width="40" height="40" viewBox="0 0 40 40" fill="none" xmlns="http://www.w3.org/2000/svg">
<g clip-path="url(#clip0)">
<path d="M36.0269 4.75648L20.3369 0.0494531C20.1175 -0.0164844 19.8832 -0.0164844 19.6635 0.0494531L3.97331 4.75648C3.47761 4.90516 3.13815 5.36141 3.13815 5.87891V23.138C3.13815 25.3828 4.0469 27.6808 5.83917 29.968C7.20807 31.7149 9.10183 33.4691 11.4679 35.1818C15.4427 38.059 19.3566 39.824 19.5213 39.8977C19.6736 39.9659 19.8368 40 20.0001 40C20.1633 40 20.3266 39.9659 20.4789 39.8977C20.6436 39.824 24.5575 38.059 28.5322 35.1818C30.8982 33.4691 32.792 31.7149 34.1609 29.968C35.9532 27.6809 36.8619 25.3829 36.8619 23.138V5.87891C36.862 5.36141 36.5226 4.90516 36.0269 4.75648ZM34.5182 23.138C34.5182 27.1108 30.5321 30.8359 27.1881 33.2615C24.1901 35.4359 21.1497 36.9789 20.0002 37.5332C18.8507 36.9789 15.8102 35.4359 12.8122 33.2615C9.46815 30.8359 5.4819 27.1108 5.4819 23.138V6.75078L20.0001 2.39531L34.5182 6.75078V23.138V23.138Z" fill="#D4323C"/>
<path d="M13 17L19 23L28.5 13.5" stroke="#D4323C" stroke-width="2.5"/>
</g>
<defs>
<clipPath id="clip0">
<rect width="40" height="40" fill="white"/>
</clipPath>
</defs>
</svg>
